#Command: "C:\Program Files (x86)\Microsoft Visual Studio\2017\Community\VC\Tools\MSVC\14.16.27023\bin\HostX86\x86\link.exe" /ERRORREPORT:PROMPT @D:\Temp\AppData\Local\Temp\tmp67653a0fe28f4f07a35e1a96435ae12a.rsp /incremental /nologo /fullbuild
^D:\USERS\KAROL\SOURCE\REPOS\CALC\CALC\CALC\DEBUG\CALC.OBJ|D:\USERS\KAROL\SOURCE\REPOS\CALC\CALC\CALC\DEBUG\DLLMAIN.OBJ|D:\USERS\KAROL\SOURCE\REPOS\CALC\CALC\CALC\DEBUG\STDAFX.OBJ
D:\TEMP\APPDATA\LOCAL\TEMP\LNK{D869EB70-CF10-4827-89A7-0735F9C8EA19}.TMP
